<?xml version="1.0" encoding="utf-8"?>
<svg width="32px" height="32px" viewBox="0 0 32 32" version="1.1" xmlns:xlink="http://www.w3.org/1999/xlink" xmlns="http://www.w3.org/2000/svg">
  <desc>Created with Lunacy</desc>
  <defs>
    <path d="M0 0L21.3336 0L21.3336 21.3336L0 21.3336L0 0Z" id="path_1" />
    <rect width="32" height="32" id="artboard_1" />
    <clipPath id="clip_1">
      <use xlink:href="#artboard_1" clip-rule="evenodd" />
    </clipPath>
    <clipPath id="mask_1">
      <use xlink:href="#path_1" />
    </clipPath>
  </defs>
  <g id="05.partner_arrow_left_btn" clip-path="url(#clip_1)">
    <g id="05.partner_arrow_left_btn" transform="matrix(1 -2.3841858E-07 2.3841858E-07 1 0 0)">
      <path d="M0 16C0 7.16344 7.16344 0 16 0C24.8366 0 32 7.16344 32 16C32 24.8366 24.8366 32 16 32C7.16344 32 0 24.8366 0 16Z" id="Ellipse" fill="#AB1032" fill-rule="evenodd" stroke="none" />
      <g id="arrow" transform="matrix(-4.371138E-08 1 -1 -4.371138E-08 26.666992 5.3342285)">
        <path d="M0 0L21.3336 0L21.3336 21.3336L0 21.3336L0 0Z" id="Background" fill="none" fill-rule="evenodd" stroke="none" />
        <g clip-path="url(#mask_1)">
          <path d="M11.2725 0L12 0.776454L6 7.20189L0 0.776454L0.72375 0L6 5.64523L11.2725 0Z" transform="translate(4.666504 7.06604)" id="Polygon" fill="#FFFFFF" fill-rule="evenodd" stroke="#FFFFFF" stroke-width="1" />
        </g>
      </g>
    </g>
  </g>
</svg>