<?xml version="1.0" encoding="utf-8"?>
<svg width="48px" height="48px" viewBox="0 0 48 48" version="1.1" xmlns:xlink="http://www.w3.org/1999/xlink" xmlns="http://www.w3.org/2000/svg">
  <desc>Created with Lunacy</desc>
  <defs>
    <path d="M0 0L48 0L48 48L0 48L0 0Z" id="path_1" />
    <rect width="48" height="48" id="artboard_1" />
    <clipPath id="clip_1">
      <use xlink:href="#artboard_1" clip-rule="evenodd" />
    </clipPath>
    <clipPath id="mask_1">
      <use xlink:href="#path_1" />
    </clipPath>
  </defs>
  <g id="04.server_icon03" clip-path="url(#clip_1)">
    <g id="icon03">
      <path d="M0 0L48 0L48 48L0 48L0 0Z" id="Background" fill="none" fill-rule="evenodd" stroke="none" />
      <g clip-path="url(#mask_1)">
        <g id="icon" transform="translate(0.26367188 0.26367188)">
          <path d="M0 37.7665L28.6813 37.7665L28.6813 47.4725L34.6154 43.8946L40.5494 47.4725L40.5494 37.7665L47.4725 37.7665L47.4725 0L0 0L0 37.7665L0 37.7665L0 37.7665ZM38.8335 31.0222C38.7445 31.1126 38.6496 31.1961 38.5556 31.2806C38.5022 31.3283 38.4527 31.379 38.3974 31.4247C38.3361 31.4764 38.2708 31.5201 38.2075 31.5688C37.3737 32.2098 36.3689 32.6363 35.2721 32.7585C35.2543 32.7605 35.2365 32.7644 35.2177 32.7664C35.0189 32.7863 34.8171 32.7972 34.6134 32.7972C34.4097 32.7972 34.2079 32.7863 34.0092 32.7664C33.9913 32.7644 33.9736 32.7605 33.9547 32.7585C32.858 32.6363 31.8541 32.2098 31.0193 31.5688C30.956 31.5201 30.8908 31.4754 30.8294 31.4247C30.7751 31.379 30.7246 31.3283 30.6712 31.2806C30.5773 31.1961 30.4833 31.1126 30.3933 31.0222C29.3341 29.9449 28.6774 28.466 28.6774 26.8341C28.6774 23.5454 31.3388 20.871 34.6114 20.871C37.8841 20.871 40.5455 23.5454 40.5455 26.8341C40.5494 28.465 39.8937 29.9439 38.8335 31.0222L38.8335 31.0222L38.8335 31.0222ZM38.5714 43.9624L34.6154 41.5771L30.6593 43.9624L30.6593 37.7667L30.6593 33.7217C30.693 33.7415 30.7305 33.7544 30.7652 33.7733C31.0273 33.9204 31.2973 34.0556 31.5761 34.1729C31.588 34.1778 31.6009 34.1818 31.6137 34.1868C32.5404 34.5704 33.5532 34.7851 34.6164 34.7851C35.6796 34.7851 36.6923 34.5704 37.619 34.1868C37.6309 34.1818 37.6437 34.1778 37.6566 34.1729C37.9355 34.0556 38.2055 33.9214 38.4676 33.7733C38.5022 33.7544 38.5398 33.7415 38.5734 33.7217L38.5734 37.7667L38.5734 43.9624L38.5714 43.9624L38.5714 43.9624L38.5714 43.9624ZM1.97802 1.98781L45.4945 1.98781L45.4945 35.7789L40.5494 35.7789L40.5494 32.0758C41.7768 30.6745 42.5275 28.8428 42.5275 26.8342C42.5275 22.4503 38.9779 18.8834 34.6154 18.8834C30.2529 18.8834 26.7033 22.4503 26.7033 26.8342C26.7033 28.8428 27.4539 30.6745 28.6813 32.0758L28.6813 35.7789L1.97802 35.7789L1.97802 1.98781L1.97802 1.98781L1.97802 1.98781Z" id="Shape" fill="#E78F77" fill-rule="evenodd" stroke="#E78F77" stroke-width="1" />
          <path d="M0 0L25.7143 0L25.7143 1.98771L0 1.98771L0 0L0 0Z" transform="translate(10.879105 5.962912)" id="Rectangle" fill="#FDC82F" fill-rule="evenodd" stroke="none" />
          <path d="M0 0L15.8242 0L15.8242 1.98771L0 1.98771L0 0L0 0Z" transform="translate(15.82416 11.926339)" id="Rectangle#1" fill="#FDC82F" fill-rule="evenodd" stroke="none" />
          <path d="M0 0L10.8791 0L10.8791 1.98771L0 1.98771L0 0L0 0Z" transform="translate(5.934066 29.815847)" id="Rectangle#2" fill="#FDC82F" fill-rule="evenodd" stroke="none" />
        </g>
      </g>
    </g>
  </g>
</svg>